# reading the matlab ion count cubes works

    Code
      head(IC, 35)
    Output
      # A tibble: 35 x 8
         grid.nm dim.nm dim_name.nm species.nm  N.rw  t.nm width.mt height.mt
           <int>  <dbl> <chr>       <chr>      <dbl> <dbl>    <dbl>     <dbl>
       1       1      1 depth       12C        63933  4.10       32        32
       2       2      1 depth       12C        56185  4.10       32        96
       3       3      1 depth       12C        50374  4.10       32       160
       4       4      1 depth       12C        46197  4.10       32       224
       5       5      1 depth       12C        79195  4.10       96        32
       6       6      1 depth       12C        85866  4.10       96        96
       7       7      1 depth       12C        82098  4.10       96       160
       8       8      1 depth       12C        69616  4.10       96       224
       9       9      1 depth       12C        76873  4.10      160        32
      10      10      1 depth       12C        80081  4.10      160        96
      # ... with 25 more rows

---

    Code
      tail(IC, 35)
    Output
      # A tibble: 35 x 8
         grid.nm dim.nm dim_name.nm species.nm   N.rw  t.nm width.mt height.mt
           <int>  <dbl> <chr>       <chr>       <dbl> <dbl>    <dbl>     <dbl>
       1      14    398 depth       12C        55304. 1630.      224        96
       2      15    398 depth       12C        49331. 1630.      224       160
       3      16    398 depth       12C        44673. 1630.      224       224
       4       1    399 depth       12C        32677. 1634.       32        32
       5       2    399 depth       12C        31964. 1634.       32        96
       6       3    399 depth       12C        29389. 1634.       32       160
       7       4    399 depth       12C        22905. 1634.       32       224
       8       5    399 depth       12C        53542. 1634.       96        32
       9       6    399 depth       12C        50009. 1634.       96        96
      10       7    399 depth       12C        43476. 1634.       96       160
      # ... with 25 more rows

---

    Code
      head(IC, 35)
    Output
      # A tibble: 35 x 12
         sample.nm file.nm grid_size.nm grid.nm dim.nm dim_name.nm species.nm    N.rw
         <chr>     <chr>          <dbl>   <int>  <dbl> <chr>       <chr>        <dbl>
       1 ""        ""              1.56       1      1 width       12C         73434.
       2 ""        ""              1.56       2      1 width       12C         86301.
       3 ""        ""              1.56       3      1 width       12C         86026.
       4 ""        ""              1.56       4      1 width       12C         53270.
       5 ""        ""              1.56       1      2 width       12C         99628.
       6 ""        ""              1.56       2      2 width       12C        115347.
       7 ""        ""              1.56       3      2 width       12C        113083.
       8 ""        ""              1.56       4      2 width       12C         76337.
       9 ""        ""              1.56       1      3 width       12C        108697.
      10 ""        ""              1.56       2      3 width       12C        124475.
      # ... with 25 more rows, and 4 more variables: t.nm <dbl>, depth.mt <dbl>,
      #   height.mt <dbl>, width.mt <dbl>

---

    Code
      tail(IC, 35)
    Output
      # A tibble: 35 x 12
         sample.nm file.nm grid_size.nm grid.nm dim.nm dim_name.nm species.nm  N.rw
         <chr>     <chr>          <dbl>   <int>  <dbl> <chr>       <chr>      <dbl>
       1 ""        ""              1.56       2    248 height      13C        3295.
       2 ""        ""              1.56       3    248 height      13C        3363.
       3 ""        ""              1.56       4    248 height      13C        3202.
       4 ""        ""              1.56       1    249 height      13C        1970.
       5 ""        ""              1.56       2    249 height      13C        3329.
       6 ""        ""              1.56       3    249 height      13C        3358.
       7 ""        ""              1.56       4    249 height      13C        3153.
       8 ""        ""              1.56       1    250 height      13C        1963.
       9 ""        ""              1.56       2    250 height      13C        3295.
      10 ""        ""              1.56       3    250 height      13C        3355.
      # ... with 25 more rows, and 4 more variables: t.nm <dbl>, depth.mt <dbl>,
      #   height.mt <dbl>, width.mt <dbl>

---

    Code
      head(IC, 35)
    Output
      # A tibble: 35 x 8
         grid.nm dim.nm dim_name.nm species.nm  N.rw  t.nm depth.mt width.mt
           <dbl>  <int> <chr>       <chr>      <dbl> <dbl>    <dbl>    <dbl>
       1       2      1 height      12C            9 0.001        1        1
       2       2      1 height      12C            7 0.001        1        2
       3       2      1 height      12C           14 0.001        1        3
       4       2      1 height      12C           21 0.001        1        4
       5       2      1 height      12C           13 0.001        1        5
       6       2      1 height      12C           15 0.001        1        6
       7       2      1 height      12C            9 0.001        1        7
       8       2      1 height      12C           17 0.001        1        8
       9       2      1 height      12C            9 0.001        1        9
      10       2      1 height      12C           12 0.001        1       10
      # ... with 25 more rows

---

    Code
      tail(IC, 35)
    Output
      # A tibble: 35 x 8
         grid.nm dim.nm dim_name.nm species.nm  N.rw  t.nm depth.mt width.mt
           <dbl>  <int> <chr>       <chr>      <dbl> <dbl>    <dbl>    <dbl>
       1       2      1 height      12C         7.21 0.001      400      222
       2       2      1 height      12C        11.7  0.001      400      223
       3       2      1 height      12C         7.85 0.001      400      224
       4       2      1 height      12C        10.4  0.001      400      225
       5       2      1 height      12C        10.5  0.001      400      226
       6       2      1 height      12C         7.05 0.001      400      227
       7       2      1 height      12C         6.74 0.001      400      228
       8       2      1 height      12C        12.2  0.001      400      229
       9       2      1 height      12C        11.8  0.001      400      230
      10       2      1 height      12C        11.7  0.001      400      231
      # ... with 25 more rows

---

    Code
      head(IC, 35)
    Output
      # A tibble: 35 x 12
         sample.nm file.nm grid_size.nm grid.nm dim.nm dim_name.nm species.nm  N.rw
         <chr>     <chr>          <dbl>   <dbl>  <int> <chr>       <chr>      <dbl>
       1 ""        ""              1.56       2      2 width       12C            7
       2 ""        ""              1.56       2      2 width       12C            6
       3 ""        ""              1.56       2      2 width       12C           11
       4 ""        ""              1.56       2      2 width       12C            9
       5 ""        ""              1.56       2      2 width       12C            3
       6 ""        ""              1.56       2      2 width       12C           11
       7 ""        ""              1.56       2      2 width       12C            9
       8 ""        ""              1.56       2      2 width       12C           15
       9 ""        ""              1.56       2      2 width       12C            6
      10 ""        ""              1.56       2      2 width       12C            8
      # ... with 25 more rows, and 4 more variables: t.nm <dbl>, depth.mt <dbl>,
      #   height.mt <dbl>, width.mt <dbl>

---

    Code
      tail(IC, 35)
    Output
      # A tibble: 35 x 12
         sample.nm file.nm grid_size.nm grid.nm dim.nm dim_name.nm species.nm     N.rw
         <chr>     <chr>          <dbl>   <dbl>  <int> <chr>       <chr>         <dbl>
       1 ""        ""              1.56       4      1 height      13C        0       
       2 ""        ""              1.56       4      1 height      13C        0       
       3 ""        ""              1.56       4      1 height      13C        0       
       4 ""        ""              1.56       4      1 height      13C        0       
       5 ""        ""              1.56       4      1 height      13C        0.000307
       6 ""        ""              1.56       4      1 height      13C        0.000110
       7 ""        ""              1.56       4      1 height      13C        0       
       8 ""        ""              1.56       4      1 height      13C        0       
       9 ""        ""              1.56       4      1 height      13C        0       
      10 ""        ""              1.56       4      1 height      13C        0       
      # ... with 25 more rows, and 4 more variables: t.nm <dbl>, depth.mt <dbl>,
      #   height.mt <dbl>, width.mt <dbl>

# metadata is retained

    Code
      point::unfold(IC)
    Output
      # A tibble: 16,896 x 15
         sample.nm file.nm grid_size.nm grid.nm dim.nm dim_name.nm species.nm  t.nm
         <chr>     <chr>          <dbl>   <int>  <dbl> <chr>       <chr>      <dbl>
       1 ""        ""              1.56       1      1 height      12C         25.6
       2 ""        ""              1.56       2      1 height      12C         25.6
       3 ""        ""              1.56       3      1 height      12C         25.6
       4 ""        ""              1.56       4      1 height      12C         25.6
       5 ""        ""              1.56       1      2 height      12C         51.2
       6 ""        ""              1.56       2      2 height      12C         51.2
       7 ""        ""              1.56       3      2 height      12C         51.2
       8 ""        ""              1.56       4      2 height      12C         51.2
       9 ""        ""              1.56       1      3 height      12C         76.8
      10 ""        ""              1.56       2      3 height      12C         76.8
      # ... with 16,886 more rows, and 7 more variables: Xt.pr <dbl>, N.pr <dbl>,
      #   depth.mt <dbl>, width.mt <dbl>, height.mt <dbl>, tc.mt <dbl>,
      #   det_type.mt <chr>
…
       [ reached getOption("max.print") -- omitted 7 row(s) and 255 matrix slice(s) ]

# new dimenions can be generated after subsampling

    Code
      xc
    Output
      # A tibble: 6,400 x 2
         width.mt height.mt
            <dbl>     <dbl>
       1       32        32
       2       32        96
       3       32       160
       4       32       224
       5       96        32
       6       96        96
       7       96       160
       8       96       224
       9      160        32
      10      160        96
      # ... with 6,390 more rows

---

    Code
      xc
    Output
      # A tibble: 1,638,400 x 2
         width.mt height.mt
            <dbl>     <dbl>
       1        1         1
       2        1         2
       3        1         3
       4        1         4
       5        1         5
       6        1         6
       7        1         7
       8        1         8
       9        1         9
      10        1        10
      # ... with 1,638,390 more rows

---

    Code
      xc
    Output
      # A tibble: 6,553,600 x 2
         depth.mt width.mt
            <dbl>    <dbl>
       1        1        1
       2        1        2
       3        1        3
       4        1        4
       5        1        5
       6        1        6
       7        1        7
       8        1        8
       9        1        9
      10        1       10
      # ... with 6,553,590 more rows
